#Command:  
^D:\TUTS\DJ_ELECTRON_ANGULAR\NODE_MODULES\KEYTAR\BUILD\RELEASE\OBJ\KEYTAR\KEYTAR_WIN.OBJ|D:\TUTS\DJ_ELECTRON_ANGULAR\NODE_MODULES\KEYTAR\BUILD\RELEASE\OBJ\KEYTAR\MAIN.OBJ|D:\TUTS\DJ_ELECTRON_ANGULAR\NODE_MODULES\KEYTAR\BUILD\RELEASE\OBJ\KEYTAR\WIN_DELAY_LOAD_HOOK.OBJ
C:\USERS\DJ.ANDZIC\APPDATA\LOCAL\MICROSOFT\APPLICATIONINSIGHTS\VSTELAIF-312CBD79-9DBB-4C48-A7DA-3CC2A931CB70\0A7F73276D334F91B37369C7AAFFE0ED.TMP
